Warm-up duration = 159.856	ms
Device memory allocation time = 0.268704	ms of size 10000000
H2D elapsed time for 10000000 = 11.6785	ms
D2H elapsed time for 10000000 = 6.20406	ms
Warm-up duration = 141.753	ms
Device memory allocation time = 0.268	ms of size 10000000
H2D elapsed time for 10000000 = 11.9239	ms
D2H elapsed time for 10000000 = 6.2049	ms
Warm-up duration = 136.204	ms
Device memory allocation time = 0.489408	ms of size 10000000
H2D elapsed time for 10000000 = 11.5903	ms
D2H elapsed time for 10000000 = 6.21398	ms
Warm-up duration = 121.536	ms
Device memory allocation time = 0.44192	ms of size 10000000
H2D elapsed time for 10000000 = 11.8463	ms
D2H elapsed time for 10000000 = 6.208	ms
Warm-up duration = 121.209	ms
Device memory allocation time = 0.449536	ms of size 10000000
H2D elapsed time for 10000000 = 11.5715	ms
D2H elapsed time for 10000000 = 6.24906	ms
Warm-up duration = 122.407	ms
Device memory allocation time = 0.443488	ms of size 10000000
H2D elapsed time for 10000000 = 11.5652	ms
D2H elapsed time for 10000000 = 6.20573	ms
Warm-up duration = 122.034	ms
Device memory allocation time = 0.46272	ms of size 10000000
H2D elapsed time for 10000000 = 11.6274	ms
D2H elapsed time for 10000000 = 6.20326	ms
Warm-up duration = 122.397	ms
Device memory allocation time = 0.448832	ms of size 10000000
H2D elapsed time for 10000000 = 11.5886	ms
D2H elapsed time for 10000000 = 6.20214	ms
Warm-up duration = 116.639	ms
Device memory allocation time = 0.44256	ms of size 10000000
H2D elapsed time for 10000000 = 11.6481	ms
D2H elapsed time for 10000000 = 6.20963	ms
Warm-up duration = 123.214	ms
Device memory allocation time = 0.443648	ms of size 10000000
H2D elapsed time for 10000000 = 11.6487	ms
D2H elapsed time for 10000000 = 6.22819	ms
